{
"order" :{
		"createdDateTime" : "<null>",
		"deliveryAddress" : "<null>",
		"device" : "<null>",
		"id" : "<null>",
		"location" : "<null>",
		"message" : "",
		"orderStatus" : "START",
		"paymentMethod" : "<null>",
		"powaTagReference" : "A-5E",
		"powaTagType" : "ONLINE",
		"products" :[
					{
						"code" : "SS13-FR214-IVORY",
						"createdDateTime" : "<null>",
						"description" : "Shop the Farrell collection. Inspired by Jack Farrell, realised by Robbie Williams. Worldwide shipping.",
						"id" : "<null>",
						"name" : "Cable Knit Jumper",
						"price" : "GBP 135.00",
						"productAttributes" : [
												{
													"createdDateTime" : "<null>",
													"id" : "<null>",
													"name" : "colour",
													"sortPos" : "0",
													"updatedDateTime" : "<null>",
													"value" : "Ivory"
												}
											],
						"productImages" : [
											{
												"createdDateTime" : "<null>",
												"id" : "<null>",
												"name" : "Image 2",
												"s3Url" : "",
												"s3processed" : "0",
												"sortPos" : "2",
												"updatedDateTime" : "<null>",
												"url" : "http://tag.powa.com/file/tuK9tg4/cbc2bcce-76f2-4c70-b13a-39d3a2e88e15.jpg"
											},
															{
												"createdDateTime" : "<null>",
												"id" : "<null>",
												"name" : "Image 3",
												"s3Url" : "",
												"s3processed" : "0",
												"sortPos" : "3",
												"updatedDateTime" : "<null>",
												"url" : "http://tag.powa.com/file/tuK9tg4/e137f12c-8963-428d-a397-b700a4637c47.jpg"
											},
															{
												"createdDateTime" : "<null>",
												"id" : "<null>",
												"name" : "Image 0",
												"s3Url" : "",
												"s3processed" : "0",
												"sortPos" : "0",
												"updatedDateTime" : "<null>",
												"url" : "http://tag.powa.com/file/tuK9tg4/39de4ae5-4bd5-4cde-bcbc-44f7ca0c767b.jpg"
											},
																{
												"createdDateTime" : "<null>",
												"id" : "<null>",
												"name" : "Image 1",
												"s3Url" : "",
												"s3processed" : "0",
												"sortPos" : "1",
												"updatedDateTime" : "<null>",
												"url" : "http://tag.powa.com/file/tuK9tg4/0c26d1a6-e246-495a-a39f-4b81327331d1.jpg"
											},
																{
												"createdDateTime" : "<null>",
												"id" : "<null>",
												"name" : "Image 4",
												"s3Url" : "",
												"s3processed" : "0",
												"sortPos" : "4",
												"updatedDateTime" : "<null>",
												"url" : "http://tag.powa.com/file/tuK9tg4/1e3539a7-c2e0-4e97-89dc-3d5bc3a90851.jpg"
											}
										],
						"productOptions" :[
											{
												"createdDateTime" : "<null>",
												"id" : "<null>",
												"name" : "size",
												"updatedDateTime" : "<null>",
												"values" :[
															{
																"code" : "SS13-FR214-IVORY-M",
																"createdDateTime" : "<null>",
																"id" : "<null>",
																"name" : "Medium",
																"sortPos" : "1",
																"updatedDateTime" : "<null>"
															},
																						{
																"code" : "SS13-FR214-IVORY-L",
																"createdDateTime" : "<null>",
																"id" : "<null>",
																"name" : "Large",
																"sortPos" : "2",
																"updatedDateTime" : "<null>"
															},
																						{
																"code" : "SS13-FR214-IVORY-S",
																"createdDateTime" : "<null>",
																"id" : "<null>",
																"name" : "Small",
																"sortPos" : "0",
																"updatedDateTime" : "<null>"
															},
																						{
																"code" : "SS13-FR214-IVORY-XL",
																"createdDateTime" : "<null>",
																"id" : "<null>",
																"name" : "Extra Large",
																"sortPos" : "3",
																"updatedDateTime" : "<null>"
															}
														]
											}
										],
						"updatedDateTime" : "<null>"
					}
					],
		"shop" :	{
					"accountNonExpired" : "1",
					"accountNonLocked" : "1",
					"addToBasket" : "0",
					"apiKey" : "ed18a780-06d0-4444-88b2-03ca68715677",
					"createdDateTime" : "1375056090590",
					"credentialsNonExpired" : "1",
					"enabled" : "1",
					"id" : "3",
					"immediateCheckout" : "1",
					"integration" : "powa",
					"name" : "Farrell Apparel Limited",
					"powaTagFeeModels" :	{
						"AUDIO" :                 {
							"chargeRate" : "25",
							"chargeType" : "FLAT",
							"createdDateTime" : "1375056090561",
							"id" : "9",
							"lowerBound" : "0",
							"updatedDateTime" : "1375056090561",
							"upperBound" : "0"
						},
						"OFFLINE" :                 {
							"chargeRate" : "25",
							"chargeType" : "FLAT",
							"createdDateTime" : "1375056090561",
							"id" : "8",
							"lowerBound" : "0",
							"updatedDateTime" : "1375056090561",
							"upperBound" : "0"
						},
						"ONLINE" :                 {
							"chargeRate" : "25",
							"chargeType" : "FLAT",
							"createdDateTime" : "1375056090561",
							"id" : "7",
							"lowerBound" : "0",
							"updatedDateTime" : "1375056090561",
							"upperBound" : "0"
						}
					},
					"updatedDateTime" : "1375056090590"
				},
		"shopIntegrationOrderReference" : "",
		"updatedDateTime" : "<null>",
		"user" :         {
			"accountNonExpired" : "1",
			"accountNonLocked" : "1",
			"addresses" :             [
								{
					"city" : "London",
					"country" :                     {
						"alpha2Code" : "GB",
						"alpha3Code" : "GBR",
						"id" : "232",
						"name" : "United Kingdom",
						"numericCode" : "826"
					},
					"county" : "Greater London",
					"createdDateTime" : "1375056090517",
					"friendlyName" : "My Address",
					"id" : "1",
					"line1" : "Powa Technologies Limited",
					"line2" : "9th Floor",
					"line3" : "The Met Building",
					"line4" : "22 Percy Street",
					"name" : "Dan Wagner",
					"postCode" : "W1T 2BU",
					"updatedDateTime" : "1375056090517"
				}
			],
			"apiKey" : "9c497051-9382-4349-a60b-5f220bb07562",
			"createdDateTime" : "1375056090700",
			"credentialsNonExpired" : "1",
			"dateOfBirth" :             [
				"2000",
				"1",
				"1"
			],
			"devices" :             [
								{
					"createdDateTime" : "1375056090720",
					"fingerprint" : "800176dc6c8db6ee07ba4501649d180cc8f67afc432aa6ae335c2795b38bce71",
					"friendlyName" : "Demo User Mobile",
					"id" : "2",
					"updatedDateTime" : "1375056090720"
				}
			],
			"emailAddress" : "demo@powatag.com",
			"enabled" : "1",
			"favouriteDeliveryAddress" :             {
				"city" : "London",
				"country" :                 {
					"alpha2Code" : "GB",
					"alpha3Code" : "GBR",
					"id" : "232",
					"name" : "United Kingdom",
					"numericCode" : "826"
				},
				"county" : "Greater London",
				"createdDateTime" : "1375056090517",
				"friendlyName" : "My Address",
				"id" : "1",
				"line1" : "Powa Technologies Limited",
				"line2" : "9th Floor",
				"line3" : "The Met Building",
				"line4" : "22 Percy Street",
				"name" : "Dan Wagner",
				"postCode" : "W1T 2BU",
				"updatedDateTime" : "1375056090517"
			},
			"favouritePaymentMethod" :             {
				"createdDateTime" : "1375056090650",
				"friendlyName" : "My Payment Method",
				"id" : "1",
				"paymentCard" :                 {
					"address" :                     {
						"city" : "London",
						"country" :                         {
							"alpha2Code" : "GB",
							"alpha3Code" : "GBR",
							"id" : "232",
							"name" : "United Kingdom",
							"numericCode" : "826"
						},
						"county" : "Greater London",
						"createdDateTime" : "1375056090517",
						"friendlyName" : "My Address",
						"id" : "1",
						"line1" : "Powa Technologies Limited",
						"line2" : "9th Floor",
						"line3" : "The Met Building",
						"line4" : "22 Percy Street",
						"name" : "Dan Wagner",
						"postCode" : "W1T 2BU",
						"updatedDateTime" : "1375056090517"
					},
					"brand" : "VISA",
					"createdDateTime" : "1375056090629",
					"cvv" : "<null>",
					"enabled" : "1",
					"expiresEnd" : "2015/01",
					"friendlyName" : "My Payment Card",
					"id" : "1",
					"issueNumber" : "0",
					"nameOnCard" : "Dan Wagner",
					"primaryAccountNumber" : "4444333322221111",
					"shortPrimaryAccountNumber" : "1111",
					"updatedDateTime" : "1375056090629",
					"validFrom" : "<null>"
				},
				"paymentType" : "CARD",
				"updatedDateTime" : "1375056090650"
			},
			"gender" : "M",
			"groups" :             [
								{
					"authorities" :                     [
												{
							"id" : "30",
							"permission" : "PERM_DEMO"
						},
												{
							"id" : "50",
							"permission" : "PERM_GENERATOR_API"
						}
					],
					"groupName" : "POWATAG_DEMO",
					"id" : "30"
				},
								{
					"authorities" :                     [
												{
							"id" : "60",
							"permission" : "PERM_CLIENT_API"
						}
					],
					"groupName" : "POWATAG_CLIENT_USERS",
					"id" : "9000"
				}
			],
			"id" : "3",
			"locale" : "en_GB",
			"name" : "John Smith",
			"paymentMethods" :             [
								{
					"createdDateTime" : "1375056090650",
					"friendlyName" : "My Payment Method",
					"id" : "1",
					"paymentCard" :                     {
						"address" :                         {
							"city" : "London",
							"country" :                             {
								"alpha2Code" : "GB",
								"alpha3Code" : "GBR",
								"id" : "232",
								"name" : "United Kingdom",
								"numericCode" : "826"
							},
							"county" : "Greater London",
							"createdDateTime" : "1375056090517",
							"friendlyName" : "My Address",
							"id" : "1",
							"line1" : "Powa Technologies Limited",
							"line2" : "9th Floor",
							"line3" : "The Met Building",
							"line4" : "22 Percy Street",
							"name" : "Dan Wagner",
							"postCode" : "W1T 2BU",
							"updatedDateTime" : "1375056090517"
						},
						"brand" : "VISA",
						"createdDateTime" : "1375056090629",
						"cvv" : "<null>",
						"enabled" : "1",
						"expiresEnd" : "2015/01",
						"friendlyName" : "My Payment Card",
						"id" : "1",
						"issueNumber" : "0",
						"nameOnCard" : "Dan Wagner",
						"primaryAccountNumber" : "4444333322221111",
						"shortPrimaryAccountNumber" : "1111",
						"updatedDateTime" : "1375056090629",
						"validFrom" : "<null>"
					},
					"paymentType" : "CARD",
					"updatedDateTime" : "1375056090650"
				}
			],
			"signin" : "<null>",
			"signinAttempt" : "0",
			"termsAndConditionsAccepted" : "1",
			"updatedDateTime" : "1375056090700"
		}
	},
	"purchaseAbortEndpoint" : "https://demo.powatag.com/cpa",
	"purchaseCompleteEndpoint" : "https://demo.powatag.com/cpc"
}